﻿{
    "secret": "skolko_stoit_opium",
    "development": {
        "username": "root",
        "password": "Gadjet1601",
        "database": "specmash",
        "host": "127.0.0.1",
        "dialect": "mysql"
    },
    "connection": {
        "user": "root",
        "password": "Gadjet1601",
        "database": "specmash",
        "host": "127.0.0.1"
    },
    "test": {
        "username": "root",
        "password": "Gadjet1601",
        "database": "specmash",
        "host": "127.0.0.1",
        "dialect": "mysql"
    },
    "production": {
        "username": "root",
        "password": "Gadjet1601",
        "database": "specmash",
        "host": "127.0.0.1",
        "dialect": "mysql"
    }
}